kb5000859
kb4589208
kb4601060
kb4601055
windows10.0-kb4580325-x64_32fc64b80a8f7dfd6c7707288249e515ec848343
windows10.0-kb4580325-x86_c4eed052856c3c4c66d239e6b7fb66d8a4cfb8ae
windows10.0-kb4577586-x86_947f151a8bb5a0b0797702e53431c52d56c02c32
windows10.0-kb4577586-x64_d0f434327db9e3308b86591c248c825c03687632
windows10.0-kb4535680-x64_bf60b4f375be3137e19d2095948f79e2d8336abe
kb5000822
