{A2563E55-3BEC-3828-8D67-E5E8B9E8B675}
{BE960C1C-7BAD-3DE6-8B1A-2616FE532845}
{74d0e5db-b326-4dae-a6b2-445b9de1836e}
{65AD78AD-D23D-3A1E-9305-3AE65CD522C2}
{1045AB6F-6151-3634-8C2C-EE308AA1A6A7}
{23daf363-3020-4059-b3ae-dc4ad39fed19}
{B5FC62F5-A367-37A5-9FD2-A6E137C0096F}
{BD9CFD69-EB91-354E-9C98-D439E6091932}
{8FD71E98-EE44-3844-9DAD-9CB0BBBC603C}
{D8C8656B-0BD8-39C3-B741-F889B7C144E5}
{37B55901-995A-3650-80B1-BBFD047E2911}
{844ECB74-9B63-3D5C-958C-30BD23F19EE4}
{BBF2AC74-720C-3CB3-8291-5E34039232FA}
{69BCE4AC-9572-3271-A2FB-9423BDA36A43}
{C6CDA568-CD91-3CA0-9EDE-DAD98A13D6E1}
{E6222D59-608C-3018-B86B-69BD241ACDE5}
{029DA848-1A80-34D3-BFC1-A6447BFC8E7F}
{568CD07E-0824-3EEB-AEC1-8FD51F3C85CF}
{828952EB-5572-3666-8CA9-000B6CE79350}
{7FED75A1-600C-394B-8376-712E2A8861F2}
{8F271F6C-6E7B-3D0A-951B-6E7B694D78BD}
{895D5198-C5DB-375E-86AB-133F4DAA9FE2}
{5C045B7F-E561-4794-91F8-C6CDA0893107}
{644544A0-318A-344C-964C-4DBE2FB5F864}
{2BCACFA1-2BE1-373C-9051-76A9661D9FC4}
{7753EC39-3039-3629-98BE-447C5D869C09}
{6F0267F3-7467-350D-A8C8-33B72E3658D8}
{2019B6A0-8533-4A04-AC0E-B2C10BDB9841}
{39E15475-23F2-345D-8977-B5DC47A94E26}
{2757496A-3E74-320A-B007-36120A9F126D}
{7B77DE7F-5219-435E-9CE1-FC77F1D4CCAD}
{DD6BC8D7-4582-4677-BAAC-4AB933E6C315}
{5EEFCEFB-E5F7-4C82-99A5-813F04AA4FBD}
{7258184A-EC44-4B1A-A7D3-68D85A35BFD0}
{B96F6FA1-530F-42F1-9F71-33C583716340}
{C9DE51F8-7846-4621-815D-E8AFD3E3C0FF}
{19F7E289-17B8-44EC-A099-927507B6F739}
{213668DB-2263-4E2D-ABB8-487FD539130E}
{1E6FC929-567E-4D22-9206-C5B83F0A21B9}
{3BDE80F7-7EC9-448E-8160-4ADA0CDA8879}
{00AC3934-26B4-406E-807C-1692AC7329EC}
{86BE78D9-65A1-4E69-86F8-C1F5281F8553}
{2E72FA1F-BADB-4337-B8AE-F7C17EC57D1D}
{EAC73207-74BD-4B13-AACF-8C0E751FA4E8}
{2BC3BD4D-FABA-4394-93C7-9AC82A263FE2}
{0FA68574-690B-4B00-89AA-B28946231449}
{2F69FB2B-2C48-491C-B249-22C1BDCE1117}
{31C9EB3A-5F0C-49E7-8E6C-D404E48F433D}
{5CD4E357-9ED6-42AC-B654-F1FC21DD60C9}
{E2C131AD-D30F-4D67-ACE9-B3D485E84DA8}
{42163859-095F-469B-A0B0-7748500570D1}
{526B224D-6B70-4A2A-9D03-CE304B5125D6}
{EE2E15BB-54C8-4DB0-B1F3-026E3C166991}
{B40FC85D-2B12-46E0-B950-E5B27E348793}
{1110E034-017D-48D8-83B9-AF2A2BFDD385}
{6D7D03AB-CC57-4350-9451-EF33BF17FBB4}
